{
  "name": "Automated Testing Kit",
  "version": "1.3",
  "description": "",
  "main": "playwright.atk.config.js",
  "scripts": {},
  "keywords": [],
  "author": "Performant Labs",
  "dependencies": {
    "@eslint/eslintrc": "^3",
    "@eslint/js": "^8.2.0",
    "@playwright/test": "^1.48",
    "axios": "^1.7",
    "cspell": "^8.16",
    "dotenv": "^16.4",
    "fast-xml-parser": "^4.5",
    "junit-report-merger": "github:bhovhannes/junit-report-merger",
    "yaml": "^2.6.0"
  },
  "devDependencies": {
    "@eslint/eslintrc": "^3",
    "@eslint/js": "^8.2.0",
    "eslint": "^8.57.1",
    "eslint-config-airbnb-base": "^15.0.0",
    "eslint-config-standard-with-typescript": "^43",
    "eslint-plugin-chai-friendly": "^1.0",
    "eslint-plugin-cypress": "^3.6.0",
    "eslint-plugin-import": "^2.31.0",
    "globals": "^15",
    "prettier": "^3.0"
  }
}
